<svg preserveAspectRatio="xMidYMid meet" data-bbox="16.069 4.73 67.859 90.54" viewBox="16.069 4.73 67.859 90.54" xmlns="http://www.w3.org/2000/svg" data-type="color" role="presentation" aria-hidden="true" aria-labelledby="svgcid-k3cfmygc3xg6"><title id="svgcid-k3cfmygc3xg6"></title>
  <g>
      <path d="M52.31 4.73c1.79.3 3.61.51 5.38.9 13.11 2.91 23.51 14 25.77 27.25 1.21 7.06-.02 13.76-2.59 20.31-2.96 7.53-7.17 14.36-11.91 20.88-5.28 7.26-11.15 14.01-17.51 20.33-1.16 1.16-1.72 1.16-2.88 0-8.92-8.93-16.99-18.54-23.52-29.38-3.63-6.02-6.63-12.33-8.19-19.24-3.18-14.1 3.45-29.19 15.99-36.38 4.43-2.54 9.16-4.11 14.26-4.53.2-.02.39-.09.59-.14h4.61zm13.25 33.95c-.03-8.58-6.98-15.57-15.48-15.56-8.71.01-15.65 6.97-15.63 15.68.02 8.54 7.08 15.47 15.7 15.43 8.47-.04 15.44-7.07 15.41-15.55z" fill="#ffffff" data-color="1"></path>
  </g>
</svg>