<svg preserveAspectRatio="xMidYMid meet" data-bbox="13.77 15.18 122.48 119.63" viewBox="13.77 15.18 122.48 119.63" xmlns="http://www.w3.org/2000/svg" data-type="color" role="presentation" aria-hidden="true" aria-labelledby="svgcid-do40op-y4drn6"><title id="svgcid-do40op-y4drn6"></title>
  <g>
      <path fill="#6d6e70" d="m114.83 46.51.04.07.04-.07-.06-.03-.02.03z" data-color="1"></path>
      <path fill="#ffffff" d="M63.1 73.45v54.26l-44.41-25.64V47.94l46.88-27.07 17.08 9.86L37 57.09v14.1l9.84 5.69V62.77l45.65-26.35 17.39 10.03-46.78 27z" data-color="2"></path>
      <path fill="#ffffff" d="M112.45 101.98v18.99l-13.95-8.05V93.97l16.4-9.47 13.92 8.02-16.37 9.46z" data-color="2"></path>
      <path fill="#ffffff" d="M131.32 96.81v16.11l-13.95 8.05v-16.15l13.99-8.08-.04.07z" data-color="2"></path>
      <path fill="#323031" d="m114.83 46.52.04.06.04-.07-.06-.03-.02.04z" data-color="3"></path>
      <path d="m134.97 90.4-1.23-.73-.01.01-16.35-9.45V45.08l-51.81-29.9-51.8 29.91v59.81l51.8 29.91 30.51-17.62 18.84 10.88 21.33-12.32V91.14l-1.28-.74zm-20.12-43.92.05.03-.04.06-.04-.06.03-.03zM63.11 73.45v54.26l-44.42-25.64V47.94l46.88-27.07 17.09 9.86L37 57.09v14.1l9.84 5.68v-14.1l45.65-26.35 17.38 10.03-46.76 27zm31.66 16.99-1.2.72v21.8l-25.54 14.75V76.29l44.53-25.71-.11.19v29.46L94.77 90.44zm17.67 11.54v18.99l-13.95-8.05V93.97l16.41-9.47 13.9 8.03-16.36 9.45zm18.87-5.17v16.11l-13.94 8.05v-16.15l13.99-8.08-.05.07zm2.45-4.24-.01-.02.01-.01.02.01-.02.02z" fill="#000000" data-color="4"></path>
      <path fill="#0093b2" d="m94.77 90.44-1.2.72v21.8l-25.54 14.75V76.29l44.52-25.7-.11.19v29.45L94.77 90.44z" data-color="5"></path>
      <path fill="#ffffff" d="M63.1 73.45v54.26l-44.41-25.64V47.94l46.87-27.07 17.09 9.86L37 57.09v14.1l9.84 5.69V62.77l45.65-26.35 17.39 10.03-46.78 27z" data-color="2"></path>
      <path fill="#ffffff" d="M112.44 101.98v18.99l-13.94-8.05V93.97l16.4-9.47 13.92 8.02-16.38 9.46z" data-color="2"></path>
      <path fill="#ffffff" d="M131.31 96.81v16.11l-13.94 8.05v-16.15l13.99-8.08-.05.07z" data-color="2"></path>
      <path fill="#231f20" d="m55.51 94.12.06.03-.04.07-.03-.07.01-.03z" data-color="6"></path>
  </g>
</svg>