<?xml version="1.0" encoding="utf-8"?>
<!-- Generator: Adobe Illustrator 26.0.2, SVG Export Plug-In . SVG Version: 6.00 Build 0)  -->
<svg version="1.1" id="Layer_1" xmlns="http://www.w3.org/2000/svg" xmlns:xlink="http://www.w3.org/1999/xlink" x="0px" y="0px"
	 viewBox="0 0 142.68 44.42" style="enable-background:new 0 0 142.68 44.42;" xml:space="preserve">
<style type="text/css">
	.st0{fill:#FFFFFF;}
	.st1{clip-path:url(#SVGID_00000072963711122513515530000010540489258242220195_);}
	.st2{fill:url(#SVGID_00000110429664106610419630000005821607942608071301_);}
	.st3{fill:url(#SVGID_00000078034173020025456770000018189769073561716121_);}
	.st4{fill:url(#SVGID_00000178190275206508388370000004496618419588228750_);}
	.st5{fill:url(#SVGID_00000118391140533908947250000011769773323122741406_);}
	.st6{fill:url(#SVGID_00000182520565839165802330000002498513663821077148_);}
	.st7{fill:url(#SVGID_00000150816643036851662810000003364765457969103520_);}
	.st8{fill:#D1D3D4;}
	.st9{opacity:0.6;}
	.st10{fill:#FFFFFF;fill-opacity:0.85;}
	.st11{fill:url(#SVGID_00000108997000653762870860000016931568553209321601_);}
	.st12{fill:#FAFAFC;}
	.st13{opacity:0.9;}
	.st14{fill:url(#SVGID_00000163043315417952514160000015420961709842800524_);}
	.st15{fill:url(#SVGID_00000012459639441153468630000017970841328514195088_);}
	.st16{fill:url(#SVGID_00000029764177896133447360000005694087377838365076_);}
	.st17{opacity:0.51;fill:#FFFFFF;}
	.st18{fill:url(#SVGID_00000023994956416233901580000012656878419531442098_);}
	.st19{fill:url(#SVGID_00000033333011101922747180000010661436750992401846_);}
	.st20{fill:url(#SVGID_00000061457266897069043760000017930806889876789695_);}
	.st21{fill:url(#SVGID_00000049904435395524655950000011258425602159408786_);}
	.st22{fill:url(#SVGID_00000170958915025060326190000000119611836603398330_);}
	.st23{fill:url(#SVGID_00000152945519638108962460000013022290407418325406_);}
	.st24{fill:url(#SVGID_00000082336479411491366780000012053049636814684325_);}
	.st25{fill:url(#SVGID_00000046318459228290592330000000050209349433726343_);}
	.st26{fill:url(#SVGID_00000079469038005663648030000009672653310372589697_);}
	.st27{fill:url(#SVGID_00000071520745954244154640000017484125012420493232_);}
	.st28{fill:url(#SVGID_00000163772404191766229560000009546635801489475000_);}
	.st29{fill:url(#SVGID_00000176761219343293001050000017488919708838324662_);}
	.st30{fill:#6F6F70;}
	.st31{fill:#313031;}
	.st32{fill:#52BEDA;}
	.st33{fill:#231F1F;}
	.st34{fill:#31718F;}
	.st35{fill:#0196B6;}
	.st36{fill:#FFFFFF;fill-opacity:0.75;}
	.st37{fill:url(#SVGID_00000008832717321602094990000002501840112965499536_);}
	.st38{fill:url(#SVGID_00000056402369982723736870000008165841729882262431_);}
	.st39{fill:url(#SVGID_00000107570355652690547320000008332649647996387460_);}
	.st40{fill:url(#SVGID_00000132070699445653462390000010336188690794123918_);}
	.st41{fill:url(#SVGID_00000142141346543657790220000017001428150567346835_);}
	.st42{fill:url(#SVGID_00000008858207771895819000000002381844010573246114_);}
	.st43{fill:url(#SVGID_00000044891973949632782470000001590328972245641612_);}
	.st44{fill:url(#SVGID_00000090976034719684314500000000118406101880196527_);}
	.st45{fill:url(#SVGID_00000112596498364986377840000006752448909970366852_);}
	.st46{fill:url(#SVGID_00000034054247228077373820000007480360910590528675_);}
	.st47{fill:url(#SVGID_00000093863642306591468100000007106938389434131368_);}
	.st48{fill:url(#SVGID_00000129173495010634909890000002122121308521910717_);}
	.st49{opacity:0.21;fill:url(#SVGID_00000042736023512981016290000007469604899250388910_);}
	.st50{opacity:0.27;fill:none;stroke:url(#SVGID_00000047754872173518607580000002690375474737716899_);stroke-miterlimit:10;}
	
		.st51{opacity:0.33;fill:none;stroke:url(#SVGID_00000061462816537278901030000005187578608408842672_);stroke-width:0.5;stroke-miterlimit:10;}
	.st52{opacity:0.2;fill:none;stroke:url(#SVGID_00000115507738546481726950000015828717186709918375_);stroke-miterlimit:10;}
	.st53{opacity:0.21;fill:url(#SVGID_00000033360175603129306500000005081418934424419718_);}
	
		.st54{opacity:0.27;fill:none;stroke:url(#SVGID_00000170240416301500978100000011385460927007304097_);stroke-width:3;stroke-miterlimit:10;}
	.st55{fill:#6D6E70;}
	.st56{fill:#323031;}
	.st57{fill:#221F20;}
</style>
<g>
	<polygon class="st55" points="32.75,13.96 32.76,13.98 32.77,13.96 32.75,13.95 	"/>
	<polygon class="st0" points="17.77,21.76 17.77,37.47 4.91,30.05 4.91,14.38 18.48,6.54 23.43,9.4 10.21,17.03 10.21,21.11 
		13.06,22.75 13.06,18.67 26.28,11.04 31.31,13.95 	"/>
	<polygon class="st0" points="32.05,30.02 32.05,30.05 32.05,35.52 28.02,33.19 28.02,27.7 32.77,24.96 36.79,27.29 	"/>
	<polygon class="st0" points="37.52,28.53 37.52,33.19 33.48,35.52 33.48,30.87 33.48,30.84 37.53,28.51 	"/>
	
		<rect x="38.22" y="27.29" transform="matrix(0.8327 -0.5537 0.5537 0.8327 -8.7179 25.7332)" class="st55" width="0.01" height="0.01"/>
	<polygon class="st56" points="32.75,13.96 32.76,13.98 32.77,13.96 32.75,13.95 	"/>
	<path d="M38.58,26.67L38.58,26.67l-0.36-0.21l0,0l-4.73-2.74V13.55l-15-8.66l-15,8.66v17.32l15,8.66l8.83-5.1l5.45,3.15l6.18-3.57
		v-7.13L38.58,26.67z M32.75,13.95l0.02,0.01l-0.01,0.02l-0.01-0.02L32.75,13.95z M17.77,21.76v15.71L4.91,30.05V14.38l13.57-7.84
		l4.95,2.86l-13.22,7.63v4.08l2.85,1.65v-4.08l13.22-7.63l5.03,2.9L17.77,21.76z M26.94,26.68l-0.35,0.21v6.31l-7.4,4.27V22.59
		l12.89-7.44l-0.03,0.06v8.53L26.94,26.68z M32.05,30.02v0.03v5.47l-4.04-2.33V27.7l4.75-2.74l4.03,2.32L32.05,30.02z M37.52,28.53
		v4.66l-4.04,2.33v-4.65v-0.03l4.05-2.34L37.52,28.53z M38.23,27.3L38.23,27.3l0-0.01L38.23,27.3L38.23,27.3z"/>
	<polygon class="st35" points="26.94,26.68 26.59,26.89 26.59,33.2 19.19,37.47 19.19,22.59 32.09,15.14 32.05,15.2 32.05,23.73 	
		"/>
	<g>
		<polygon class="st0" points="17.77,21.76 17.77,37.47 4.91,30.05 4.91,14.38 18.48,6.54 23.43,9.4 10.21,17.03 10.21,21.11 
			13.06,22.75 13.06,18.67 26.28,11.04 31.31,13.95 		"/>
		<polygon class="st0" points="32.05,30.02 32.05,30.05 32.05,35.52 28.02,33.19 28.02,27.7 32.77,24.96 36.79,27.29 		"/>
		<polygon class="st0" points="37.52,28.53 37.52,33.19 33.48,35.52 33.48,30.87 33.48,30.84 37.53,28.51 		"/>
	</g>
	
		<rect x="38.22" y="27.29" transform="matrix(0.8664 -0.4994 0.4994 0.8664 -8.5225 22.7368)" class="st56" width="0.01" height="0.01"/>
	<polygon class="st57" points="15.57,27.75 15.59,27.76 15.58,27.78 15.57,27.76 	"/>
	
		<rect x="38.94" y="27.15" transform="matrix(0.8664 -0.4994 0.4994 0.8664 -8.3565 23.074)" class="st57" width="0.01" height="0.01"/>
	<g>
		<path class="st0" d="M89.72,13.23h5.7c3.98,0,6.44,1.72,6.44,5.23s-2.46,5.26-6.44,5.26h-3.71v9.1h-1.99V13.23z M91.72,21.89h3.21
			c3.57,0,4.79-1.55,4.79-3.43c0-1.88-1.22-3.4-4.79-3.4h-3.21V21.89z"/>
		<path class="st0" d="M110.83,24.54v-0.33c0-2.24-1.08-3.35-3.32-3.35c-1.52,0-2.85,0.53-3.95,1.52l-1.11-1.3
			c1.19-1.22,3.04-1.88,5.48-1.88c2.54,0,4.73,1.44,4.73,4.59v5.78c0,1,0.11,2.21,0.22,2.9h-1.77c-0.11-0.64-0.16-1.41-0.16-2.1
			h-0.06c-1.05,1.71-2.49,2.43-4.56,2.43c-2.3,0-4.46-1.27-4.46-3.79c0-4.2,4.95-4.48,8.05-4.48H110.83z M109.89,26.04
			c-1.85,0-6.03,0.14-6.03,2.74c0,1.72,1.58,2.38,3.04,2.38c2.65,0,3.93-1.88,3.93-4.18v-0.94H109.89z"/>
		<path class="st0" d="M124.59,22.58c-0.61-0.94-1.8-1.72-3.24-1.72c-3.01-0.05-4.87,2.19-4.87,5.15c0,2.96,1.86,5.2,4.87,5.15
			c1.44,0,2.63-0.77,3.24-1.71l1.5,1.13c-1.27,1.49-2.99,2.21-4.73,2.24c-4.23,0.06-6.86-2.9-6.86-6.81c0-3.9,2.63-6.86,6.86-6.81
			c1.74,0.03,3.46,0.75,4.73,2.24L124.59,22.58z"/>
		<polygon class="st0" points="129.65,25.7 135.77,19.87 138.51,19.87 132.06,25.79 139.2,32.81 136.38,32.81 129.65,26.01 
			129.65,32.81 127.83,32.81 127.83,13.23 129.65,13.23 		"/>
		<path class="st0" d="M45.75,13.23h5.7c3.98,0,6.44,1.72,6.44,5.23s-2.46,5.26-6.44,5.26h-3.71v9.1h-1.99V13.23z M47.74,21.89h3.21
			c3.57,0,4.79-1.55,4.79-3.43c0-1.88-1.22-3.4-4.79-3.4h-3.21V21.89z"/>
		<path class="st0" d="M72.8,22.58c-0.61-0.94-1.8-1.72-3.24-1.72c-3.01-0.05-4.87,2.19-4.87,5.15c0,2.96,1.86,5.2,4.87,5.15
			c1.44,0,2.63-0.77,3.24-1.71l1.49,1.13c-1.27,1.49-2.99,2.21-4.73,2.24c-4.23,0.06-6.86-2.9-6.86-6.81c0-3.9,2.63-6.86,6.86-6.81
			c1.74,0.03,3.46,0.75,4.73,2.24L72.8,22.58z"/>
		<polygon class="st0" points="78.19,25.7 84.3,19.87 87.04,19.87 80.6,25.79 87.73,32.81 84.91,32.81 78.19,26.01 78.19,32.81 
			76.36,32.81 76.36,13.23 78.19,13.23 		"/>
		<rect x="58.86" y="19.2" class="st0" width="1.92" height="2.07"/>
		<rect x="58.86" y="23.02" class="st0" width="1.92" height="9.8"/>
	</g>
</g>
</svg>
