<svg preserveAspectRatio="xMidYMid meet" data-bbox="16.069 5.105 67.859 89.785" viewBox="0 0 100 100" xmlns="http://www.w3.org/2000/svg" data-type="ugc" role="presentation" aria-hidden="true" aria-labelledby="svgcid--fvckr2-ne9ie"><title id="svgcid--fvckr2-ne9ie"></title>
    <g>
        <linearGradient y2="4.861" x2="50" y1="95.139" x1="50" gradientUnits="userSpaceOnUse" id="svgcid-3w29h0-kojoz1">
            <stop offset=".002" stop-color="#ffffff" stop-opacity="0"></stop>
            <stop offset="1" stop-color="#ffffff"></stop>
        </linearGradient>
        <path d="M16.08 54.57V16.45c0-6.62 4.76-11.32 11.54-11.33 15.01-.02 30.03-.02 45.04 0 6.56.01 11.25 4.65 11.26 11.09.01 14.67.01 29.33 0 44 0 6.69-4.79 11.34-11.63 11.34-9.38 0-18.76-.01-28.14.02-.88 0-1.2-.15-1.18-1.1.06-3.96.05-7.91 0-11.87-.01-.83.23-1.01 1.05-1.01 6.56.03 13.12.02 19.68.02 4 0 6.64-2.55 6.64-6.45.01-9.08.01-18.15 0-27.23-.01-3.64-2.59-6.17-6.3-6.17-9.49-.01-18.98-.01-28.47 0-3.64 0-5.93 2.29-5.93 5.88v68.29c0 .73 0 1.46-.48 2.08-.45.59-1.06.86-1.82.86-3.48-.01-6.97-.04-10.45.02-.89.01-.82-.43-.82-1 .01-10.82 0-21.64 0-32.46.01-2.29.01-4.57.01-6.86z" opacity=".33" fill="none" stroke="url(#svgcid-3w29h0-kojoz1)" stroke-width=".5" stroke-miterlimit="10"></path>
    </g>
</svg>