<?xml version="1.0" encoding="utf-8"?>
<!-- Generator: Adobe Illustrator 26.0.2, SVG Export Plug-In . SVG Version: 6.00 Build 0)  -->
<svg version="1.1" id="Layer_1" xmlns="http://www.w3.org/2000/svg" xmlns:xlink="http://www.w3.org/1999/xlink" x="0px" y="0px"
	 viewBox="0 0 150 150" style="enable-background:new 0 0 150 150;" xml:space="preserve">
<style type="text/css">
	.st0{fill:#FFFFFF;}
</style>
<g>
	<path class="st0" d="M110.88,52.7c-0.02-7.68-5.64-13.52-13.22-13.55c-15.12-0.07-30.24-0.03-45.37-0.01
		c-2.53,0-4.91,0.68-7.04,2.07c-4.12,2.69-6.09,6.59-6.13,11.44c-0.05,7.45-0.01,14.89-0.01,22.34c0,7.33-0.01,14.66,0.01,21.99
		c0,0.99,0.05,1.99,0.23,2.96c1.26,6.65,6.53,10.96,13.42,10.96c14.8,0.02,29.6,0.01,44.4-0.01c0.93,0,1.87-0.07,2.78-0.25
		c6.51-1.25,10.84-6.45,10.91-13.11c0.04-3.88,0.01-7.77,0.01-11.65C110.89,74.83,110.91,63.77,110.88,52.7z M74.96,97.44
		c-12.52-0.02-22.38-9.89-22.38-22.42c0-12.57,9.9-22.45,22.46-22.43c12.53,0.02,22.38,9.89,22.38,22.42
		C97.42,87.58,87.53,97.46,74.96,97.44z M97.36,57.08c-2.46-0.05-4.44-2.07-4.43-4.5c0.01-2.48,2.09-4.52,4.55-4.47
		c2.46,0.05,4.44,2.06,4.43,4.5C101.89,55.09,99.82,57.13,97.36,57.08z"/>
	<path class="st0" d="M75.08,61.55c-7.61-0.04-13.53,5.82-13.54,13.43c-0.02,7.58,5.81,13.46,13.38,13.51
		c7.61,0.05,13.53-5.82,13.55-13.43C88.48,67.47,82.66,61.59,75.08,61.55z"/>
	<path class="st0" d="M111.34,5.63H38.66c-18.24,0-33.03,14.79-33.03,33.03v72.67c0,18.24,14.79,33.03,33.03,33.03h72.67
		c18.24,0,33.03-14.79,33.03-33.03V38.66C144.37,20.42,129.58,5.63,111.34,5.63z M119.84,99.37c-0.06,0.25-0.13,0.5-0.16,0.76
		c-0.98,8.93-7.2,16.33-15.89,18.83c-1.45,0.42-2.96,0.61-4.44,0.91c-16.23,0-32.46,0-48.7,0c-0.25-0.06-0.5-0.13-0.76-0.16
		c-4.81-0.57-9.05-2.44-12.59-5.75c-4.83-4.51-7.13-10.14-7.14-16.72c-0.01-14.8-0.01-29.6,0-44.4c0-0.93,0.06-1.87,0.15-2.79
		c1.05-11,10.45-19.77,21.55-19.84c15.41-0.1,30.82-0.08,46.23-0.01c9.29,0.05,17.62,6.21,20.51,15.03
		c0.58,1.76,0.83,3.62,1.23,5.43C119.84,66.9,119.84,83.13,119.84,99.37z"/>
</g>
</svg>
